{
  "type": "service_account",
  "project_id": "brevt-production",
  "private_key_id": "18ea24c5da063449b835712c470d6fd847d52173",
  "private_key": "-----BEGIN PRIVATE KEY-----\nMIIEvwIBADANBgkqhkiG9w0BAQEFAASCBKkwggSlAgEAAoIBAQDJNeKJP/hWaOO9\nu7ulk4dzhJDQM/mRHrhsCX1LuHI+LNg+U9Qs33f21c9zBt9ZUjPOvRn88vZ60cf6\nw2iPkxrZ+4gvHDJ84BVfm81oNpLwyBE1i00JnxTZJfOb4Qo2cmm4Zklj8QHbLxPM\nd9+477eZfYeUPnECnicBTFOQ/uxKsoSPnAxY/MaLAHq/TEEtxsEDjeqV+CY5oTUW\nNvMny+LZ1BWpmv2VQBoB6wmUV5ZWOrAWn3seQ45QsS9vwg57OfRDs4Ay0WbgAkn3\nH5vRo8b4omUBsMA4FuC30bmc8A4Xo1jdqKeqTMm/4XdzBZn1hgO6yzSQ8CCteGdC\nVbC05kKjAgMBAAECggEAOdQSURcBFTidJ7Uyd6KAffteMXCWrBYzs91AVQhkUSlL\nVxJ5uxHY5SjLMAiMHZxKBoOD2hasL11mh9Qsk4MYZwjrOXr1qb0vd2SMcwSoU6p0\ng7qPABJoCAbnzmetqztT1isTsbUdLvUHUC8trfW7g1I4KquNiE6S8EUTCWuy1r6Y\nGEVSEdHrzMRrJP55a6GuwzLqeBjQmEXfx9GKGnlK+sknVJ4lhATO0te7FD0Wk21o\nMYse2EdVCrG30CEmnSnOA88r59P/9QBGWiAs+E4EXl/s22zAPjvcvyEbgERp1hHK\nMcR8jUsqCVYjM3e2dDG2EKP+Ai9ZNatWbtf7kM2ZBQKBgQD0cs4xz3thmkOznFgl\n7DqrPIUTmCylXnghOub/hxXSNWLcEYjedHp9vW0dVonptdmWyKYRpfmYWFXW+bfd\nn/lVG2EFHXcMWmDc62gKOa5wW1c2CBMxKkpSJR4fB4oPl9iKi67hubo+3rVMPxhy\nckJmyjAGHtY1SyVN1PjII34TFQKBgQDSuAMC+e7rKoLku5+mpAkbSlaUgJZmOP7g\nLEWMba1Tju6hfwro2UNtgSLChe4zchuVjrSkKKJlOoeUGh84XIVbifk68GK/yora\nS2DsKqnj7pmYflxb2UKeVtHuYf8/tfO51lbllxc+eA37WmCkI9SFRAd2NKZd/++m\nZO/7VXJM1wKBgQDnA2RIAIvahn46zKMlW6VqVGxzQxnWQnwG83KAxDnkCZ3e2hde\nG/fywsTOuAznuHrkm8UN4qwJxFmDK0YPBXMNci1zNxBdtT/bKAGPwElRV5EIuALj\nMNNB5GAd9PMNn3P+Itnn6qzPY4s0fmBtL/v+xk8ySYwom1aqwn1GLvyjrQKBgQCb\nqEqxPCd9mJ2wkdjRpIMFodhrQsHXKWs99fY6UhqjiwZETjCk6Tmh/q7Ku1zGrBgs\nVoqiaVHtLVtR0CoX3GC2yilNnJ2Vx+zibKRgUPPG6E6WE2Huh4Nqq//P9Jw1WBd+\nxBLU7tPA1baeYpjZJ46qEyLf8uyiq5lAdXfBVdFlaQKBgQDtOK/ak0DdNCo6muu8\nLmIzVubuYxd809kex0FZSf+idAecgAm3s9ENiNVKFHazqG9JoBHKVqYu/Elg75Vs\nDd2wu+7W0fQF2ZpZ6JnKYYP2MKNEDSUcpPtkdrdNYcvlZHAKYEXlMu29tSnAVF4V\n5i51KHGo2uqtyKXqoDxzwvm0pw==\n-----END PRIVATE KEY-----\n",
  "client_email": "brevt-production@appspot.gserviceaccount.com",
  "client_id": "113560395153802249232",
  "auth_uri": "https://accounts.google.com/o/oauth2/auth",
  "token_uri": "https://accounts.google.com/o/oauth2/token",
  "auth_provider_x509_cert_url": "https://www.googleapis.com/oauth2/v1/certs",
  "client_x509_cert_url": "https://www.googleapis.com/robot/v1/metadata/x509/brevt-production%40appspot.gserviceaccount.com"
}

