{
  "type": "service_account",
  "project_id": "playground-36296",
  "private_key_id": "54a8b70a5e4d6449c5159bb5bad407d214fd5e79",
  "private_key": "-----BEGIN PRIVATE KEY-----\nMIIEvQIBADANBgkqhkiG9w0BAQEFAASCBKcwggSjAgEAAoIBAQCdGjWvRgkpIlUO\nsTnSygy7uiDvZS+4P4M/It2QMLpetf7OFTyjE0hjUSVTXysn920tkE4UsZcKjuzS\ntftmULQpDAxL5Nb7Kxty9/2/6tR3aK5SgjE43YKtUgfe7NQwX75FKg+Rtwy1NU4O\ndSVJGycqy1yBXl++IU1WK8spicFC25ENR73Z/dJ8PAcOp0CzclhFWU5OFb8KqQG5\nhMuZ8EYPGl/R74mbOFt+F3GfWXUb3zUmAYuSxHXupE/+gIf+72rYwtXE6VfejUQZ\nQBL5eJXOGalWThXS0uMi5vsoak+wn1JfuoL8M+EVRM0dS05U1hl9FqI2hzNZDdkf\nNo0otb25AgMBAAECggEAO/SLtmdhCZy7n07NhX9smpwvA423R3adrROuQOAH0Cte\noeGC8a1jO9v1BbtVKfyIYxImaklYHkRrZwLifaqhBuU9MB2WWeaapCa2ZW7GRQfj\nN0POayhGPcUHkfEKDagMYjLqHC8in2lHb8cPQrYlHXTcydZtbY8iB5fRAfo7kjrF\nlgXCy54mvd5qL7H62uBWLho5snxHbHqqkghsSp7b26fMVXO9Q92l8XaNhFSOzqAZ\nDHUZ3iA2xhyb1ktBualuk3bJoiEUr1XPz3l6FRA+5g3BwMctqaNm2bGzuyLsxOy+\nXNqE5h4V05pgLnd0IMERtdsNw69U2upItsssRIZKLQKBgQDbGZD9QCmWLrN2d2A4\nk9c7nO6OSBaomkGMTtNE7+5nXbb+OfoAE6W8SeV6DDlyc4KUFgtq0v0AsMyZrYXj\nb0RH40usG369ikNpc96kke60DJrp+QQWMBjNyzHKUUeCIBZ0S2LRK1DebKbUWwO0\n0Y6gKmjHLz7DNOAAYpJsWip7MwKBgQC3j6NL6ZBpVr5pxtxPkZYgbicDfRDzE/Ir\nas5dyHdzS/0ZF89Z+sDwgNf/Tb+COyPLdlsWaLHXdUOQak+bg4xOB+f3lzCe49iy\n/aNp7611+RZt56SZQxiSjW2hTKc4dzTu+N8nV/mZx1op6+6A+egVpoU+uZBY3QAB\ncVG7Vc+DYwKBgQDZDcnqac8JHjjh6r9jLWszfnOCdv4jh7XaJxj7mWon8tpfntYB\nj3VIRDjXIRckQDSjOfeTm3PTZFM9B3+1YbxWL2H/HboAUeIYrRZrGLtOmZI6qlwX\nEwzvixZHZSAfVGSKT0iVCYFy6FaZ15SjZFsUZw8oDLDzuAUVvJFsUCL3qwKBgCM0\n/6Mdxz8NDjSHmdYBHIRX3E/E+y1EVByTvcUrIA4TMxZPBMxDViJK9CLZrLOz2Ce8\nKbhgmEu1CCJ44Y/4aT7GMW3Bp+ex1+xszZ0SBXktL2ohFeb3gY0KZ06avzALXTHA\ntjx7mTovjFGiGPrP8/3DFKd1PARvTwL30y9VRBn1AoGABGX07bnUbIXZ+vcNks/t\n0SJMD6XR+6g/vqL81DWpaAIWHC5UFB3GUYh4PqA953spoTQbzhVe8jNgd5x840EC\nX6o2Pl+GWt9immzahUfbjO2EfZanY2vId3Hq+IGEP4b07zGnpOfTUEf8jmf+Ytkb\nAABeg7E5gIT2u4qVguEDkls=\n-----END PRIVATE KEY-----\n",
  "client_email": "firebase-adminsdk-ma5pk@playground-36296.iam.gserviceaccount.com",
  "client_id": "112343071123655720473",
  "auth_uri": "https://accounts.google.com/o/oauth2/auth",
  "token_uri": "https://accounts.google.com/o/oauth2/token",
  "auth_provider_x509_cert_url": "https://www.googleapis.com/oauth2/v1/certs",
  "client_x509_cert_url": "https://www.googleapis.com/robot/v1/metadata/x509/firebase-adminsdk-ma5pk%40playground-36296.iam.gserviceaccount.com"
}
